{
  "identifier":  "68",
  "party":       "Vihreä liitto",
  "firstname":   "Alviina",
  "lastname":    "Alametsä",
  "dateofbirth": "1980-12-22",
  "occupation":  "Kaupunkivastaava",
  "hometown":    "Helsinki",
  "motto":       "Älä luota pelkkään puheeseen, testaa kaikkea.",
  "image_url":   "http://www.vantaansanomat.fi/sites/default/files/styles/article/public/doris/processed/images/22321354.jpg"
}
{
  "identifier":  "247",
  "party":       "Piraattipuolue",
  "firstname":   "Ville",
  "lastname":    "Hautakangas",
  "dateofbirth": "1975-05-02",
  "occupation":  "Tietotekniikkasuunnittelija",
  "hometown":    "Helsinki",
  "motto":       "Romu kiertoon kiitos",
  "image_url":   "http://www4.vaalikone.fi/eduskuntavaalit2011/static/images/candidates/1568/hautakangas_ville.600x300.jpg"
}
{
  "identifier":  "174",
  "party":       "Perussuomalaiset",
  "firstname":   "Tuula",
  "lastname":    "Salo",
  "dateofbirth": "1983-09-01",
  "occupation":  "Sairaanhoitaja AMK",
  "hometown":    "Helsinki",
  "motto":       "Ihmisen puolesta ihmiselle",
  "image_url":   "http://images.cdn.yle.fi/image/upload/13-1-2640510.jpg"
}

