0: 0x80
1: 0x80
2: 0x80
3: 0x80
4: 0x80
5: 0x80
6: 0x80
7: 0x80
8: 0x80
9: 0x80
10: 0x80
11: 0x80
12: 0x80
13: 0x80
14: 0x80
15: 0x80
16: 0x80
17: 0x80
18: 0x80
19: 0x80
20: 0x80
21: 0x80
22: 0x80
23: 0x80
24: 0x80
25: 0x80
26: 0x80
27: 0x80
28: 0x80
29: 0x80
30: 0x80
31: 0x80
32: 0x80
33: 0x80
34: 0x80
35: 0x80
36: 0x80
37: 0x80
38: 0x80
39: 0x80
40: 0x80
41: 0x80
42: 0x80
43: 0x80
44: 0x80
45: 0x80
46: 0x80
47: 0x80
48: 0x80
49: 0x80
50: 0x80
51: 0x80
52: 0x80
53: 0x80
54: 0x80
55: 0x80
56: 0x80
57: 0x80
58: 0x80
59: 0x80
60: 0x80
61: 0x80
62: 0x80
63: 0x80
64: 0x80
65: 0x80
66: 0x80
67: 0x80
68: 0x80
69: 0x80
70: 0x80
71: 0x80
72: 0x80
73: 0x80
74: 0x80
75: 0x80
76: 0x80
77: 0x80
78: 0x80
79: 0x80
80: 0x80
81: 0x80
82: 0x80
83: 0x80
84: 0x80
85: 0x80
86: 0x80
87: 0x80
88: 0x80
89: 0x80
90: 0x80
91: 0x80
92: 0x80
93: 0x80
94: 0x80
95: 0x80
96: 0x80
97: 0x80
98: 0x80
99: 0x80
100: 0x80
101: 0x80
102: 0x80
103: 0x80
104: 0x80
105: 0x80
106: 0x80
107: 0x80
108: 0x80
109: 0x80
110: 0x80
111: 0x80
112: 0x80
113: 0x80
114: 0x80
115: 0x80
116: 0x80
117: 0x80
118: 0x80
119: 0x80
120: 0x80
121: 0x80
122: 0x80
123: 0x80
124: 0x80
125: 0x80
126: 0x80
127: 0x80
128: 0x40
129: 0x40
130: 0x40
131: 0x40
132: 0x40
133: 0x40
134: 0x40
135: 0x40
136: 0x40
137: 0x40
138: 0x40
139: 0x40
140: 0x40
141: 0x40
142: 0x40
143: 0x40
144: 0x40
145: 0x40
146: 0x40
147: 0x40
148: 0x40
149: 0x40
150: 0x40
151: 0x40
152: 0x40
153: 0x40
154: 0x40
155: 0x40
156: 0x40
157: 0x40
158: 0x40
159: 0x40
160: 0x40
161: 0x40
162: 0x40
163: 0x40
164: 0x40
165: 0x40
166: 0x40
167: 0x40
168: 0x40
169: 0x40
170: 0x40
171: 0x40
172: 0x40
173: 0x40
174: 0x40
175: 0x40
176: 0x40
177: 0x40
178: 0x40
179: 0x40
180: 0x40
181: 0x40
182: 0x40
183: 0x40
184: 0x40
185: 0x40
186: 0x40
187: 0x40
188: 0x40
189: 0x40
190: 0x40
191: 0x40
192: 0x20
193: 0x20
194: 0x20
195: 0x20
196: 0x20
197: 0x20
198: 0x20
199: 0x20
200: 0x20
201: 0x20
202: 0x20
203: 0x20
204: 0x20
205: 0x20
206: 0x20
207: 0x20
208: 0x20
209: 0x20
210: 0x20
211: 0x20
212: 0x20
213: 0x20
214: 0x20
215: 0x20
216: 0x20
217: 0x20
218: 0x20
219: 0x20
220: 0x20
221: 0x20
222: 0x20
223: 0x20
224: 0x10
225: 0x10
226: 0x10
227: 0x10
228: 0x10
229: 0x10
230: 0x10
231: 0x10
232: 0x10
233: 0x10
234: 0x10
235: 0x10
236: 0x10
237: 0x10
238: 0x10
239: 0x10
240: 0x08
241: 0x08
242: 0x08
243: 0x08
244: 0x08
245: 0x08
246: 0x08
247: 0x08
248: 0x04
249: 0x04
250: 0x04
251: 0x04
252: 0x02
253: 0x02
254: 0x01
255: 0x01
